…
You can install the development version of mRatio from
[GitHub](https://github.com/metacoglab/mRatio) with:

``` r
# install.packages("pak")
pak::pak("metacoglab/mRatio")
```

## Get started

Let’s say you have some data from a binary decision task with ordinal
confidence ratings:

``` R
#> # A tibble: 1,000 × 5
#>    trial stimulus response correct confidence
#>    <int>    <int>    <int>   <int>      <int>
#>  1     1        0        0       1          4
#>  2     2        0        0       1          3
#>  3     3        1        0       0          1
#>  4     4        0        0       1          2
#>  5     5        1        1       1          3
#>  6     6        0        1       0          1
#>  7     7        0        0       1          2
#>  8     8        0        1       0          1
#>  9     9        1        0       0          3
#> 10    10        1        1       1          3
#> # ℹ 990 more rows
```
…
Now let’s say you have a more complicated design, such as a
within-participants manipulation:

``` R
#> # A tibble: 5,000 × 7
#> # Groups:   participant, condition [50]
#>    participant condition trial stimulus response correct confidence
#>          <int>     <int> <int>    <int>    <int>   <int>      <int>
#>  1           1         1     1        0        0       1          3
#>  2           1         1     2        1        1       1          3
#>  3           1         1     3        1        1       1          3
#>  4           1         1     4        0        1       0          1
#>  5           1         1     5        1        1       1          2
#>  6           1         1     6        1        1       1          3
#>  7           1         1     7        1        0       0          3
#>  8           1         1     8        0        0       1          2
#>  9           1         1     9        1        1       1          4
#> 10           1         1    10        0        0       1          4
#> # ℹ 4,990 more rows
```
…
