Obtain posterior draws of an index of metacognitive bias — metacognitive_bias_draws • mRatio
…
# compute pseudo-type 1 ROC curve
metacognitive_bias_draws(m, newdata)
#> # A tibble: 500 × 3
#> # Groups:   response [2]
#>    response .draw metacognitive_bias
#>       <int> <int>              <dbl>
#>  1        0     1              0.981
#>  2        0     2              1.18 
#>  3        0     3              1.10 
#>  4        0     4              1.00 
#>  5        0     5              0.875
#>  6        0     6              1.04 
#>  7        0     7              1.01 
#>  8        0     8              1.14 
#>  9        0     9              1.04 
#> 10        0    10              1.06 
#> # ℹ 490 more rows
add_metacognitive_bias_draws(newdata, m)
#> # A tibble: 500 × 3
#> # Groups:   response [2]
#>    response .draw metacognitive_bias
#>       <int> <int>              <dbl>
#>  1        0     1              0.981
#>  2        0     2              1.18 
#>  3        0     3              1.10 
#>  4        0     4              1.00 
#>  5        0     5              0.875
#>  6        0     6              1.04 
#>  7        0     7              1.01 
#>  8        0     8              1.14 
#>  9        0     9              1.04 
#> 10        0    10              1.06 
#> # ℹ 490 more rows

# average over the two type 1 responses
metacognitive_bias_draws(m, newdata, by_response = FALSE)
#> # A tibble: 250 × 2
#>    .draw metacognitive_bias
#>    <int>              <dbl>
#>  1     1              1.00 
#>  2     2              1.04 
#>  3     3              0.983
#>  4     4              0.927
#>  5     5              1.01 
#>  6     6              1.07 
#>  7     7              0.882
#>  8     8              1.00 
#>  9     9              1.03 
#> 10    10              1.14 
#> # ℹ 240 more rows
…
