…
# compute metacognitive bias
metacognitive_bias_draws(m, newdata)
#> # A tibble: 500 × 6
#> # Groups:   .row, response [2]
#>     .row response .chain .iteration .draw metacognitive_bias
#>    <int>    <int>  <int>      <int> <int>              <dbl>
#>  1     1        0     NA         NA     1              0.981
#>  2     1        0     NA         NA     2              1.18 
#>  3     1        0     NA         NA     3              1.10 
#>  4     1        0     NA         NA     4              1.00 
#>  5     1        0     NA         NA     5              0.875
#>  6     1        0     NA         NA     6              1.04 
#>  7     1        0     NA         NA     7              1.01 
#>  8     1        0     NA         NA     8              1.14 
#>  9     1        0     NA         NA     9              1.04 
#> 10     1        0     NA         NA    10              1.06 
#> # ℹ 490 more rows
add_metacognitive_bias_draws(newdata, m)
#> # A tibble: 500 × 6
#> # Groups:   .row, response [2]
#>     .row response .chain .iteration .draw metacognitive_bias
#>    <int>    <int>  <int>      <int> <int>              <dbl>
#>  1     1        0     NA         NA     1              0.981
#>  2     1        0     NA         NA     2              1.18 
#>  3     1        0     NA         NA     3              1.10 
#>  4     1        0     NA         NA     4              1.00 
#>  5     1        0     NA         NA     5              0.875
#>  6     1        0     NA         NA     6              1.04 
#>  7     1        0     NA         NA     7              1.01 
#>  8     1        0     NA         NA     8              1.14 
#>  9     1        0     NA         NA     9              1.04 
#> 10     1        0     NA         NA    10              1.06 
#> # ℹ 490 more rows
…
# average over the two type 1 responses
metacognitive_bias_draws(m, newdata, by_response = FALSE)
#> # A tibble: 250 × 5
#> # Groups:   .row [1]
#>     .row .chain .iteration .draw metacognitive_bias
#>    <int>  <int>      <int> <int>              <dbl>
#>  1     1     NA         NA     1              1.00 
#>  2     1     NA         NA     2              1.04 
#>  3     1     NA         NA     3              0.983
#>  4     1     NA         NA     4              0.927
#>  5     1     NA         NA     5              1.01 
#>  6     1     NA         NA     6              1.07 
#>  7     1     NA         NA     7              0.882
#>  8     1     NA         NA     8              1.00 
#>  9     1     NA         NA     9              1.03 
#> 10     1     NA         NA    10              1.14 
#> # ℹ 240 more rows
…
