…
# compute mean confidence by stimulus and response
mean_confidence_draws(m, newdata)
#> # A tibble: 1,000 × 7
#> # Groups:   .row, stimulus, response [4]
#>     .row .chain .iteration .draw stimulus response .epred
#>    <int>  <int>      <int> <int>    <int>    <int>  <dbl>
#>  1     1     NA         NA     1        0        0   2.37
#>  2     1     NA         NA     1        0        1   1.99
#>  3     1     NA         NA     1        1        0   2.12
#>  4     1     NA         NA     1        1        1   2.31
#>  5     1     NA         NA     2        0        0   2.04
#>  6     1     NA         NA     2        0        1   1.86
#>  7     1     NA         NA     2        1        0   1.83
#>  8     1     NA         NA     2        1        1   2.10
#>  9     1     NA         NA     3        0        0   1.93
#> 10     1     NA         NA     3        0        1   2.33
#> # ℹ 990 more rows
add_mean_confidence_draws(newdata, m)
#> # A tibble: 1,000 × 7
#> # Groups:   .row, stimulus, response [4]
#>     .row .chain .iteration .draw stimulus response .epred
#>    <int>  <int>      <int> <int>    <int>    <int>  <dbl>
#>  1     1     NA         NA     1        0        0   2.37
#>  2     1     NA         NA     1        0        1   1.99
#>  3     1     NA         NA     1        1        0   2.12
#>  4     1     NA         NA     1        1        1   2.31
#>  5     1     NA         NA     2        0        0   2.04
#>  6     1     NA         NA     2        0        1   1.86
#>  7     1     NA         NA     2        1        0   1.83
#>  8     1     NA         NA     2        1        1   2.10
#>  9     1     NA         NA     3        0        0   1.93
#> 10     1     NA         NA     3        0        1   2.33
#> # ℹ 990 more rows

# compute mean confidence by stimulus
mean_confidence_draws(m, newdata, by_response = FALSE)
#> # A tibble: 500 × 6
#> # Groups:   .row, stimulus [2]
#>     .row .chain .iteration .draw stimulus .epred
#>    <int>  <int>      <int> <int>    <int>  <dbl>
#>  1     1     NA         NA     1        0   2.20
#>  2     1     NA         NA     1        1   2.25
#>  3     1     NA         NA     2        0   1.97
#>  4     1     NA         NA     2        1   2.02
#>  5     1     NA         NA     3        0   2.05
#>  6     1     NA         NA     3        1   2.21
#>  7     1     NA         NA     4        0   2.23
#>  8     1     NA         NA     4        1   2.30
#>  9     1     NA         NA     5        0   1.90
#> 10     1     NA         NA     5        1   1.84
#> # ℹ 490 more rows

# compute mean confidence by response
mean_confidence_draws(m, newdata, by_stimulus = FALSE)
#> # A tibble: 500 × 6
#> # Groups:   .row, response [2]
#>     .row .chain .iteration .draw response .epred
#>    <int>  <int>      <int> <int>    <int>  <dbl>
#>  1     1     NA         NA     1        0   2.28
#>  2     1     NA         NA     1        1   2.18
#>  3     1     NA         NA     2        0   1.97
#>  4     1     NA         NA     2        1   2.01
#>  5     1     NA         NA     3        0   1.91
#>  6     1     NA         NA     3        1   2.38
#>  7     1     NA         NA     4        0   2.16
#>  8     1     NA         NA     4        1   2.41
#>  9     1     NA         NA     5        0   1.98
#> 10     1     NA         NA     5        1   1.77
#> # ℹ 490 more rows

# compute mean confidence averaging over stimuli and responses
mean_confidence_draws(m, newdata, by_stimulus = FALSE, by_response = FALSE)
#> # A tibble: 250 × 5
#> # Groups:   .row [1]
#>     .row .chain .iteration .draw .epred
#>    <int>  <int>      <int> <int>  <dbl>
#>  1     1     NA         NA     1   2.23
#>  2     1     NA         NA     2   1.99
#>  3     1     NA         NA     3   2.13
#>  4     1     NA         NA     4   2.27
#>  5     1     NA         NA     5   1.87
#>  6     1     NA         NA     6   2.21
#>  7     1     NA         NA     7   2.29
#>  8     1     NA         NA     8   1.84
#>  9     1     NA         NA     9   2.29
#> 10     1     NA         NA    10   2.04
#> # ℹ 240 more rows
```
