…
# obtain model parameters (wide format)
metad_draws(m, newdata)
#> # A tibble: 250 × 15
#> # Groups:   .row [1]
#>     .row .chain .iteration .draw      M dprime       c meta_dprime  meta_c
#>    <int>  <int>      <int> <int>  <dbl>  <dbl>   <dbl>       <dbl>   <dbl>
#>  1     1     NA         NA     1 0.0779  1.25  -0.0694      0.0974 -0.0694
#>  2     1     NA         NA     2 0.0955  1.32  -0.0563      0.126  -0.0694
#>  3     1     NA         NA     3 0.328   1.53  -0.0775      0.501  -0.0694
#>  4     1     NA         NA     4 1.21    0.589  0.290       0.712  -0.0694
#>  5     1     NA         NA     5 1.35    0.634  0.280       0.856  -0.0694
#>  6     1     NA         NA     6 1.36    0.872 -0.173       1.18   -0.0694
#>  7     1     NA         NA     7 1.49    1.07  -0.0221      1.60   -0.0694
#>  8     1     NA         NA     8 0.828   1.27   0.0909      1.05   -0.0694
#>  9     1     NA         NA     9 0.169   0.885  0.0355      0.150  -0.0694
#> 10     1     NA         NA    10 0.0667  0.636 -0.168       0.0424 -0.0694
#> # ℹ 240 more rows
#> # ℹ 6 more variables: meta_c2_0_1 <dbl>, meta_c2_0_2 <dbl>, meta_c2_0_3 <dbl>,
#> #   meta_c2_1_1 <dbl>, meta_c2_1_2 <dbl>, meta_c2_1_3 <dbl>
add_metad_draws(newdata, m)
#> # A tibble: 250 × 15
#> # Groups:   .row [1]
#>     .row .chain .iteration .draw      M dprime       c meta_dprime  meta_c
#>    <int>  <int>      <int> <int>  <dbl>  <dbl>   <dbl>       <dbl>   <dbl>
#>  1     1     NA         NA     1 0.0779  1.25  -0.0694      0.0974 -0.0694
#>  2     1     NA         NA     2 0.0955  1.32  -0.0563      0.126  -0.0694
#>  3     1     NA         NA     3 0.328   1.53  -0.0775      0.501  -0.0694
#>  4     1     NA         NA     4 1.21    0.589  0.290       0.712  -0.0694
#>  5     1     NA         NA     5 1.35    0.634  0.280       0.856  -0.0694
#>  6     1     NA         NA     6 1.36    0.872 -0.173       1.18   -0.0694
#>  7     1     NA         NA     7 1.49    1.07  -0.0221      1.60   -0.0694
#>  8     1     NA         NA     8 0.828   1.27   0.0909      1.05   -0.0694
#>  9     1     NA         NA     9 0.169   0.885  0.0355      0.150  -0.0694
#> 10     1     NA         NA    10 0.0667  0.636 -0.168       0.0424 -0.0694
#> # ℹ 240 more rows
#> # ℹ 6 more variables: meta_c2_0_1 <dbl>, meta_c2_0_2 <dbl>, meta_c2_0_3 <dbl>,
#> #   meta_c2_1_1 <dbl>, meta_c2_1_2 <dbl>, meta_c2_1_3 <dbl>

# obtain model parameters (long format)
metad_draws(m, newdata, pivot_longer = TRUE)
#> # A tibble: 2,750 × 6
#> # Groups:   .row, .variable [11]
#>     .row .chain .iteration .draw .variable    .value
#>    <int>  <int>      <int> <int> <chr>         <dbl>
#>  1     1     NA         NA     1 M            0.0779
#>  2     1     NA         NA     1 dprime       1.25  
#>  3     1     NA         NA     1 c           -0.0694
#>  4     1     NA         NA     1 meta_dprime  0.0974
#>  5     1     NA         NA     1 meta_c      -0.0694
#>  6     1     NA         NA     1 meta_c2_0_1 -0.480 
#>  7     1     NA         NA     1 meta_c2_0_2 -0.817 
#>  8     1     NA         NA     1 meta_c2_0_3 -1.02  
#>  9     1     NA         NA     1 meta_c2_1_1  0.350 
#> 10     1     NA         NA     1 meta_c2_1_2  0.684 
#> # ℹ 2,740 more rows
add_metad_draws(newdata, m, pivot_longer = TRUE)
#> # A tibble: 2,750 × 6
#> # Groups:   .row, .variable [11]
#>     .row .chain .iteration .draw .variable    .value
#>    <int>  <int>      <int> <int> <chr>         <dbl>
#>  1     1     NA         NA     1 M            0.0779
#>  2     1     NA         NA     1 dprime       1.25  
#>  3     1     NA         NA     1 c           -0.0694
#>  4     1     NA         NA     1 meta_dprime  0.0974
#>  5     1     NA         NA     1 meta_c      -0.0694
#>  6     1     NA         NA     1 meta_c2_0_1 -0.480 
#>  7     1     NA         NA     1 meta_c2_0_2 -0.817 
#>  8     1     NA         NA     1 meta_c2_0_3 -1.02  
#>  9     1     NA         NA     1 meta_c2_1_1  0.350 
#> 10     1     NA         NA     1 meta_c2_1_2  0.684 
#> # ℹ 2,740 more rows
…
