…
# compute pseudo-type 1 ROC curve
roc1_draws(m, newdata)
#> # A tibble: 1,750 × 9
#> # Groups:   .row, joint_response, response, confidence [7]
#>     .row .chain .iteration .draw joint_response response confidence  p_fa p_hit
#>    <int>  <int>      <int> <int>          <dbl>    <int>      <dbl> <dbl> <dbl>
#>  1     1     NA         NA     1              1        0          4 0.804 0.973
#>  2     1     NA         NA     2              1        0          4 0.868 0.942
#>  3     1     NA         NA     3              1        0          4 0.886 0.963
#>  4     1     NA         NA     4              1        0          4 0.806 0.964
#>  5     1     NA         NA     5              1        0          4 0.905 0.969
#>  6     1     NA         NA     6              1        0          4 0.838 0.908
#>  7     1     NA         NA     7              1        0          4 0.876 0.984
#>  8     1     NA         NA     8              1        0          4 0.816 0.966
#>  9     1     NA         NA     9              1        0          4 0.900 0.977
#> 10     1     NA         NA    10              1        0          4 0.823 0.958
#> # ℹ 1,740 more rows
add_roc1_draws(newdata, m)
#> # A tibble: 1,750 × 9
#> # Groups:   .row, joint_response, response, confidence [7]
#>     .row .chain .iteration .draw joint_response response confidence  p_fa p_hit
#>    <int>  <int>      <int> <int>          <dbl>    <int>      <dbl> <dbl> <dbl>
#>  1     1     NA         NA     1              1        0          4 0.804 0.973
#>  2     1     NA         NA     2              1        0          4 0.868 0.942
#>  3     1     NA         NA     3              1        0          4 0.886 0.963
#>  4     1     NA         NA     4              1        0          4 0.806 0.964
#>  5     1     NA         NA     5              1        0          4 0.905 0.969
#>  6     1     NA         NA     6              1        0          4 0.838 0.908
#>  7     1     NA         NA     7              1        0          4 0.876 0.984
#>  8     1     NA         NA     8              1        0          4 0.816 0.966
#>  9     1     NA         NA     9              1        0          4 0.900 0.977
#> 10     1     NA         NA    10              1        0          4 0.823 0.958
#> # ℹ 1,740 more rows
# use posterior::rvar for additional efficiency
roc1_rvars(m, newdata)
#> # A tibble: 7 × 6
#> # Groups:   .row, joint_response, response, confidence [7]
#>    .row joint_response response confidence           p_fa         p_hit
#>   <int>          <int>    <int>      <dbl>     <rvar[1d]>    <rvar[1d]>
#> 1     1              1        0          4  0.858 ± 0.043  0.96 ± 0.020
#> 2     1              2        0          3  0.703 ± 0.057  0.89 ± 0.035
#> 3     1              3        0          2  0.613 ± 0.064  0.85 ± 0.043
#> 4     1              4        0          1  0.317 ± 0.073  0.65 ± 0.074
#> 5     1              5        1          1  0.189 ± 0.050  0.45 ± 0.070
#> 6     1              6        1          2  0.094 ± 0.036  0.27 ± 0.059
#> 7     1              7        1          3  0.029 ± 0.017  0.11 ± 0.038
add_roc1_draws(newdata, m)
#> # A tibble: 1,750 × 9
#> # Groups:   .row, joint_response, response, confidence [7]
#>     .row .chain .iteration .draw joint_response response confidence  p_fa p_hit
#>    <int>  <int>      <int> <int>          <dbl>    <int>      <dbl> <dbl> <dbl>
#>  1     1     NA         NA     1              1        0          4 0.804 0.973
#>  2     1     NA         NA     2              1        0          4 0.868 0.942
#>  3     1     NA         NA     3              1        0          4 0.886 0.963
#>  4     1     NA         NA     4              1        0          4 0.806 0.964
#>  5     1     NA         NA     5              1        0          4 0.905 0.969
#>  6     1     NA         NA     6              1        0          4 0.838 0.908
#>  7     1     NA         NA     7              1        0          4 0.876 0.984
#>  8     1     NA         NA     8              1        0          4 0.816 0.966
#>  9     1     NA         NA     9              1        0          4 0.900 0.977
#> 10     1     NA         NA    10              1        0          4 0.823 0.958
#> # ℹ 1,740 more rows

# include the ROC bounds
roc1_draws(m, newdata, bounds = TRUE)
#> # A tibble: 2,250 × 9
#> # Groups:   .row, joint_response, response, confidence [9]
#>     .row .chain .iteration .draw joint_response response confidence  p_fa p_hit
#>    <int>  <int>      <int> <int>          <dbl>    <dbl>      <dbl> <dbl> <dbl>
#>  1     1     NA         NA     1              0        0          5     1     1
#>  2     1     NA         NA     2              0        0          5     1     1
#>  3     1     NA         NA     3              0        0          5     1     1
#>  4     1     NA         NA     4              0        0          5     1     1
#>  5     1     NA         NA     5              0        0          5     1     1
#>  6     1     NA         NA     6              0        0          5     1     1
#>  7     1     NA         NA     7              0        0          5     1     1
#>  8     1     NA         NA     8              0        0          5     1     1
#>  9     1     NA         NA     9              0        0          5     1     1
#> 10     1     NA         NA    10              0        0          5     1     1
#> # ℹ 2,240 more rows
```
