…
# compute type 2 ROC curve
roc2_draws(m, newdata)
#> # A tibble: 1,500 × 8
#> # Groups:   .row, response, confidence [6]
#>     .row .chain .iteration .draw response confidence p_hit2   p_fa2
#>    <int>  <int>      <int> <int>    <int>      <dbl>  <dbl>   <dbl>
#>  1     1     NA         NA     1        0          4  0.371 0.0405 
#>  2     1     NA         NA     2        0          4  0.313 0.0660 
#>  3     1     NA         NA     3        0          4  0.377 0.0754 
#>  4     1     NA         NA     4        0          4  0.281 0.0193 
#>  5     1     NA         NA     5        0          4  0.244 0.0304 
#>  6     1     NA         NA     6        0          4  0.217 0.0219 
#>  7     1     NA         NA     7        0          4  0.222 0.0242 
#>  8     1     NA         NA     8        0          4  0.305 0.00687
#>  9     1     NA         NA     9        0          4  0.243 0.00533
#> 10     1     NA         NA    10        0          4  0.305 0.00834
#> # ℹ 1,490 more rows
add_roc2_draws(newdata, m)
#> # A tibble: 1,500 × 8
#> # Groups:   .row, response, confidence [6]
#>     .row .chain .iteration .draw response confidence p_hit2   p_fa2
#>    <int>  <int>      <int> <int>    <int>      <dbl>  <dbl>   <dbl>
#>  1     1     NA         NA     1        0          4  0.371 0.0405 
#>  2     1     NA         NA     2        0          4  0.313 0.0660 
#>  3     1     NA         NA     3        0          4  0.377 0.0754 
#>  4     1     NA         NA     4        0          4  0.281 0.0193 
#>  5     1     NA         NA     5        0          4  0.244 0.0304 
#>  6     1     NA         NA     6        0          4  0.217 0.0219 
#>  7     1     NA         NA     7        0          4  0.222 0.0242 
#>  8     1     NA         NA     8        0          4  0.305 0.00687
#>  9     1     NA         NA     9        0          4  0.243 0.00533
#> 10     1     NA         NA    10        0          4  0.305 0.00834
#> # ℹ 1,490 more rows
…
# include the ROC bounds
roc2_draws(m, newdata, bounds = TRUE)
#> # A tibble: 2,500 × 8
#> # Groups:   .row, response, confidence [10]
#>     .row .chain .iteration .draw response confidence p_hit2   p_fa2
#>    <int>  <int>      <int> <int>    <dbl>      <dbl>  <dbl>   <dbl>
#>  1     1     NA         NA     1        0          4  0.371 0.0405 
#>  2     1     NA         NA     2        0          4  0.313 0.0660 
#>  3     1     NA         NA     3        0          4  0.377 0.0754 
#>  4     1     NA         NA     4        0          4  0.281 0.0193 
#>  5     1     NA         NA     5        0          4  0.244 0.0304 
#>  6     1     NA         NA     6        0          4  0.217 0.0219 
#>  7     1     NA         NA     7        0          4  0.222 0.0242 
#>  8     1     NA         NA     8        0          4  0.305 0.00687
#>  9     1     NA         NA     9        0          4  0.243 0.00533
#> 10     1     NA         NA    10        0          4  0.305 0.00834
#> # ℹ 2,490 more rows
```
