…
- `confidence`: the simulated type 2 response (from `1` to
  `length(c2_0_diff)+1`)

- `dprime:theta_2`: the simulated agent's parameter values

If `summarize=TRUE`, the `trial` column is replaced with an `n` column
indicating the number of simulated type 1/type 2 responses for each
possible value.

## Examples

``` r
sim_metad_participant(N_participants = 10, N_trials = 10)
#> # A tibble: 100 × 15
#>    participant trial stimulus response correct confidence dprime       c
#>          <int> <int>    <int>    <int>   <int>      <int>  <dbl>   <dbl>
#>  1           1     1        0        0       1          1 -0.381 -0.0327
#>  2           1     2        0        0       1          3 -0.381 -0.0327
#>  3           1     3        0        1       0          3 -0.381 -0.0327
#>  4           1     4        0        1       0          3 -0.381 -0.0327
#>  5           1     5        0        1       0          3 -0.381 -0.0327
#>  6           1     1        1        0       0          4 -0.381 -0.0327
#>  7           1     2        1        1       1          2 -0.381 -0.0327
#>  8           1     3        1        1       1          3 -0.381 -0.0327
#>  9           1     4        1        1       1          4 -0.381 -0.0327
#> 10           1     5        1        1       1          4 -0.381 -0.0327
#> # ℹ 90 more rows
#> # ℹ 7 more variables: meta_dprime <dbl>, M <dbl>, meta_c2_0 <list>,
#> #   meta_c2_1 <list>, theta <dbl>, theta_1 <dbl>, theta_2 <dbl>
sim_metad_participant(mu_dprime = 2, mu_log_M = -1)
#> # A tibble: 10,000 × 15
#>    participant trial stimulus response correct confidence dprime      c
#>          <int> <int>    <int>    <int>   <int>      <int>  <dbl>  <dbl>
#>  1           1     1        0        0       1          1   2.19 -0.175
#>  2           1     2        0        0       1          1   2.19 -0.175
#>  3           1     3        0        0       1          1   2.19 -0.175
#>  4           1     4        0        0       1          1   2.19 -0.175
#>  5           1     5        0        0       1          1   2.19 -0.175
#>  6           1     6        0        0       1          1   2.19 -0.175
#>  7           1     7        0        0       1          1   2.19 -0.175
#>  8           1     8        0        0       1          1   2.19 -0.175
#>  9           1     9        0        0       1          1   2.19 -0.175
#> 10           1    10        0        0       1          1   2.19 -0.175
#> # ℹ 9,990 more rows
#> # ℹ 7 more variables: meta_dprime <dbl>, M <dbl>, meta_c2_0 <list>,
#> #   meta_c2_1 <list>, theta <dbl>, theta_1 <dbl>, theta_2 <dbl>
```
