…
#> 10         1     5        1        1       1          3      1     0           1
#> 11         2     1        0        0       1          2      1     0           1
#> 12         2     2        0        0       1          3      1     0           1
#> 13         2     3        0        0       1          4      1     0           1
#> 14         2     4        0        1       0          1      1     0           1
#> 15         2     5        0        1       0          3      1     0           1
#> 16         2     1        1        1       1          1      1     0           1
#> 17         2     2        1        1       1          1      1     0           1
#> 18         2     3        1        1       1          2      1     0           1
#> 19         2     4        1        1       1          2      1     0           1
#> 20         2     5        1        1       1          4      1     0           1
#> # ℹ 6 more variables: M <dbl>, meta_c2_0 <list>, meta_c2_1 <list>, theta <dbl>,
#> #   theta_1 <dbl>, theta_2 <dbl>
sim_metad_condition(N_trials = 10000, summarize = TRUE)
#> # A tibble: 32 × 15
#>    condition stimulus response correct confidence     n dprime     c meta_dprime
#>        <int>    <int>    <int>   <int>      <int> <int>  <dbl> <dbl>       <dbl>
#>  1         1        0        0       1          1   986      1     0           1
#>  2         1        0        0       1          2   968      1     0           1
#>  3         1        0        0       1          3   758      1     0           1
#>  4         1        0        0       1          4   759      1     0           1
#>  5         1        0        1       0          1   725      1     0           1
#>  6         1        0        1       0          2   474      1     0           1
#>  7         1        0        1       0          3   221      1     0           1
#>  8         1        0        1       0          4   109      1     0           1
#>  9         1        1        0       0          1   779      1     0           1
#> 10         1        1        0       0          2   442      1     0           1
#> # ℹ 22 more rows
#> # ℹ 6 more variables: M <dbl>, meta_c2_0 <list>, meta_c2_1 <list>, theta <dbl>,
#> #   theta_1 <dbl>, theta_2 <dbl>
…
