…
- `correct`: whether `stimulus==response` (either `0` or `1`)

- `confidence`: the simulated type 2 response (from `1` to
  `length(c2_0_diff)+1`)

- `dprime:theta_2`: the simulated agent's parameter values If
  `summarize=TRUE`, the `trial` column is replaced with an `n` column
  indicating the number of simulated type 1/type 2 responses for each
  possible value.

## Examples

``` r
sim_metad_participant_condition(10, 10)
#> # A tibble: 200 × 16
#>    participant condition trial stimulus response correct confidence dprime
#>          <int>     <int> <int>    <int>    <int>   <int>      <int>  <dbl>
#>  1           1         1     1        0        0       1          2  0.120
#>  2           1         1     2        0        1       0          2  0.120
#>  3           1         1     3        0        1       0          4  0.120
#>  4           1         1     4        0        1       0          4  0.120
#>  5           1         1     5        0        1       0          4  0.120
#>  6           1         1     1        1        0       0          1  0.120
#>  7           1         1     2        1        0       0          1  0.120
#>  8           1         1     3        1        0       0          2  0.120
#>  9           1         1     4        1        1       1          1  0.120
#> 10           1         1     5        1        1       1          2  0.120
#> # ℹ 190 more rows
#> # ℹ 8 more variables: c <dbl>, meta_dprime <dbl>, M <dbl>, meta_c2_0 <list>,
#> #   meta_c2_1 <list>, theta <dbl>, theta_1 <dbl>, theta_2 <dbl>
```
