…
``` r
library(tidyverse)
library(brms)
library(tidybayes)
library(mRatio)

d <- sim_metad(
  N_trials = 1000, dprime = .75, c = -.5, log_M = -1,
  c2_0 = c(.25, .75, 1), c2_1 = c(.5, 1, 1.25)
)
```

    #> # A tibble: 1,000 × 4
    #> # Groups:   stimulus, response, confidence [16]
    #>    trial stimulus response confidence
    #>    <int>    <int>    <int>      <int>
    #>  1     1        0        0          1
    #>  2     2        0        0          1
    #>  3     3        0        0          1
    #>  4     4        0        0          1
    #>  5     5        0        0          1
    #>  6     6        0        0          1
    #>  7     7        0        0          1
    #>  8     8        0        0          1
    #>  9     9        0        0          1
    #> 10    10        0        0          1
    #> # ℹ 990 more rows
…
If you would like to convert the joint response into separate type 1 and
type 2 responses, you can use the corresponding functions
`type1_response` and `type2_response`. For example, if instead we had a
dataset that looked like this:

    #> # A tibble: 1,000 × 2
    #>    trial joint_response
    #>    <int>          <dbl>
    #>  1     1              4
    #>  2     2              4
    #>  3     3              4
    #>  4     4              4
    #>  5     5              4
    #>  6     6              4
    #>  7     7              4
    #>  8     8              4
    #>  9     9              4
    #> 10    10              4
    #> # ℹ 990 more rows

Then we could convert our joint response like so:

``` r
d.joint_response |>
  mutate(response=type1_response(joint_response, K=4),
         confidence=type2_response(joint_response, K=4))
#> # A tibble: 1,000 × 4
#>    trial joint_response response confidence
#>    <int>          <dbl>    <int>      <dbl>
#>  1     1              4        0          1
#>  2     2              4        0          1
#>  3     3              4        0          1
#>  4     4              4        0          1
#>  5     5              4        0          1
#>  6     6              4        0          1
#>  7     7              4        0          1
#>  8     8              4        0          1
#>  9     9              4        0          1
#> 10    10              4        0          1
#> # ℹ 990 more rows
```

Similarly, you can also convert the separate responses into a joint
response:

``` r
d |>
  mutate(joint_response=joint_response(response, confidence, K=4))
#> # A tibble: 1,000 × 5
#> # Groups:   stimulus, response, confidence [16]
#>    trial stimulus response confidence joint_response
#>    <int>    <int>    <int>      <int>          <dbl>
#>  1     1        0        0          1              4
#>  2     2        0        0          1              4
#>  3     3        0        0          1              4
#>  4     4        0        0          1              4
#>  5     5        0        0          1              4
#>  6     6        0        0          1              4
#>  7     7        0        0          1              4
#>  8     8        0        0          1              4
#>  9     9        0        0          1              4
#> 10    10        0        0          1              4
#> # ℹ 990 more rows
```
…
### Parameter estimates

First, it is often useful to extract the posterior draws of the model
parameters. Here we can use
[`tidybayes::linpred_draws`](https://mjskay.github.io/tidybayes/reference/add_predicted_draws.html)
(with arguments `dpar=TRUE` and `transform=TRUE` to extract the
estimates of all model parameters on their true scale):

``` r
draws.linpred <- tibble(.row = 1) |>
  add_linpred_draws(m, dpar = TRUE, transform = TRUE) 
```

    #> # A tibble: 4,000 × 14
    #> # Groups:   .row [1]
    #>     .row .chain .iteration .draw .linpred    mu dprime      c metac2zero1diff
    #>    <int>  <int>      <int> <int>    <dbl> <dbl>  <dbl>  <dbl>           <dbl>
    #>  1     1     NA         NA     1    0.635 0.635  0.756 -0.505           0.201
    #>  2     1     NA         NA     2    0.419 0.419  0.723 -0.503           0.197
    #>  3     1     NA         NA     3    0.358 0.358  0.775 -0.499           0.212
    #>  4     1     NA         NA     4    0.571 0.571  0.687 -0.463           0.206
    #>  5     1     NA         NA     5    0.499 0.499  0.803 -0.540           0.243
    #>  6     1     NA         NA     6    0.398 0.398  0.735 -0.557           0.231
    #>  7     1     NA         NA     7    0.574 0.574  0.605 -0.475           0.197
    #>  8     1     NA         NA     8    0.456 0.456  0.716 -0.501           0.227
    #>  9     1     NA         NA     9    0.693 0.693  0.476 -0.482           0.190
    #> 10     1     NA         NA    10    0.596 0.596  0.777 -0.481           0.239
    #> # ℹ 3,990 more rows
    #> # ℹ 5 more variables: metac2zero2diff <dbl>, metac2zero3diff <dbl>,
    #> #   metac2one1diff <dbl>, metac2one2diff <dbl>, metac2one3diff <dbl>

This `tibble` has a separate row for every posterior sample and a
separate column for every model parameter (`.linpred` and `mu` both
representing $M\text{-ratio}$). This format is useful for some purposes,
but it will often be useful to pivot it so that we have a separate row
for each model parameter and posterior sample:

``` r
draws.linpred <- draws.linpred |>
  pivot_longer(.linpred:metac2one3diff, names_to = ".variable", values_to = ".value")
```

    #> # A tibble: 40,000 × 6
    #> # Groups:   .row [1]
    #>     .row .chain .iteration .draw .variable       .value
    #>    <int>  <int>      <int> <int> <chr>            <dbl>
    #>  1     1     NA         NA     1 .linpred         0.635
    #>  2     1     NA         NA     1 mu               0.635
    #>  3     1     NA         NA     1 dprime           0.756
    #>  4     1     NA         NA     1 c               -0.505
    #>  5     1     NA         NA     1 metac2zero1diff  0.201
    #>  6     1     NA         NA     1 metac2zero2diff  0.753
    #>  7     1     NA         NA     1 metac2zero3diff  1.57 
    #>  8     1     NA         NA     1 metac2one1diff   0.485
    #>  9     1     NA         NA     1 metac2one2diff   1.03 
    #> 10     1     NA         NA     1 metac2one3diff   1.26 
    #> # ℹ 39,990 more rows
…
### Posterior predictions

One way to evaluate model fit is to perform a *posterior predictive
check*: to simulate data from the model’s posterior and compare our
simulated and actual data. We can do this using
`tidybayes::posterior_predict`:

``` r
draws.predicted <- predicted_draws(m, d.summary)
```

    #> # A tibble: 64,000 × 9
    #> # Groups:   N_0, N_1, N, .row, .category [16]
    #>      N_0   N_1 N[,"N_0_1"]  .row .chain .iteration .draw .category .prediction
    #>    <int> <int>       <int> <int>  <int>      <int> <int> <fct>           <int>
    #>  1   500   500           3     1     NA         NA     1 N_0_1               1
    #>  2   500   500           3     1     NA         NA     2 N_0_1               7
    #>  3   500   500           3     1     NA         NA     3 N_0_1               2
    #>  4   500   500           3     1     NA         NA     4 N_0_1               7
    #>  5   500   500           3     1     NA         NA     5 N_0_1               1
    #>  6   500   500           3     1     NA         NA     6 N_0_1               1
    #>  7   500   500           3     1     NA         NA     7 N_0_1               2
    #>  8   500   500           3     1     NA         NA     8 N_0_1               2
    #>  9   500   500           3     1     NA         NA     9 N_0_1               8
    #> 10   500   500           3     1     NA         NA    10 N_0_1               6
    #> # ℹ 63,990 more rows
    #> # ℹ 1 more variable: N[2:16] <int>
…
``` r
draws.predicted <- draws.predicted |>
  ungroup() |>
  separate(.category,
    into = c("var", "stimulus", "joint_response"),
    sep = "_", convert = TRUE
  ) |>
  mutate(
    response = factor(type1_response(joint_response, K=4)),
    confidence = factor(type2_response(joint_response, K=4))
  )
```

    #> # A tibble: 64,000 × 13
    #>      N_0   N_1 N[,"N_0_1"]  .row .chain .iteration .draw var   stimulus
    #>    <int> <int>       <int> <int>  <int>      <int> <int> <chr>    <int>
    #>  1   500   500           3     1     NA         NA     1 N            0
    #>  2   500   500           3     1     NA         NA     2 N            0
    #>  3   500   500           3     1     NA         NA     3 N            0
    #>  4   500   500           3     1     NA         NA     4 N            0
    #>  5   500   500           3     1     NA         NA     5 N            0
    #>  6   500   500           3     1     NA         NA     6 N            0
    #>  7   500   500           3     1     NA         NA     7 N            0
    #>  8   500   500           3     1     NA         NA     8 N            0
    #>  9   500   500           3     1     NA         NA     9 N            0
    #> 10   500   500           3     1     NA         NA    10 N            0
    #> # ℹ 63,990 more rows
    #> # ℹ 5 more variables: N[2:16] <int>, joint_response <int>, .prediction <int>,
    #> #   response <fct>, confidence <fct>
…
Usually it will be simpler to compare response probabilities rather than
raw response counts. To do this, we can use the same workflow as above
but using
[`tidybayes::epred_draws`](https://mjskay.github.io/tidybayes/reference/add_predicted_draws.html):

``` r
draws.epred <- epred_draws(m, newdata = tibble(.row = 1)) |>
  separate(.category, into = c("var", "stimulus", "joint_response"), sep = "_", convert = TRUE) |>
  mutate(
    response = factor(type1_response(joint_response, K=4)),
    confidence = factor(type2_response(joint_response, K=4))
  )
```

    #> # A tibble: 64,000 × 10
    #> # Groups:   .row [1]
    #>     .row .chain .iteration .draw var   stimulus joint_response  .epred response
    #>    <int>  <int>      <int> <int> <chr>    <int>          <int>   <dbl> <fct>   
    #>  1     1     NA         NA     1 N            0              1 0.00296 0       
    #>  2     1     NA         NA     2 N            0              1 0.0100  0       
    #>  3     1     NA         NA     3 N            0              1 0.00375 0       
    #>  4     1     NA         NA     4 N            0              1 0.0122  0       
    #>  5     1     NA         NA     5 N            0              1 0.00535 0       
    #>  6     1     NA         NA     6 N            0              1 0.00504 0       
    #>  7     1     NA         NA     7 N            0              1 0.00363 0       
    #>  8     1     NA         NA     8 N            0              1 0.00509 0       
    #>  9     1     NA         NA     9 N            0              1 0.00828 0       
    #> 10     1     NA         NA    10 N            0              1 0.00637 0       
    #> # ℹ 63,990 more rows
    #> # ℹ 1 more variable: confidence <fct>
…
