…
``` r
library(tidyverse)
library(brms)
library(tidybayes)
library(mRatio)

d <- sim_metad(
  N_trials = 1000, dprime = .75, c = -.5, log_M = -1,
  c2_0 = c(.25, .75, 1), c2_1 = c(.5, 1, 1.25)
)
```

    #> # A tibble: 1,000 × 4
    #> # Groups:   stimulus, response, confidence [16]
    #>    trial stimulus response confidence
    #>    <int>    <int>    <int>      <int>
    #>  1     1        0        0          1
    #>  2     2        0        0          1
    #>  3     3        0        0          1
    #>  4     4        0        0          1
    #>  5     5        0        0          1
    #>  6     6        0        0          1
    #>  7     7        0        0          1
    #>  8     8        0        0          1
    #>  9     9        0        0          1
    #> 10    10        0        0          1
    #> # ℹ 990 more rows
…
If you would like to convert the joint response into separate type 1 and
type 2 responses, you can use the corresponding functions
`type1_response` and `type2_response`. For example, if instead we had a
dataset that looked like this:

    #> # A tibble: 1,000 × 2
    #>    trial joint_response
    #>    <int>          <dbl>
    #>  1     1              4
    #>  2     2              4
    #>  3     3              4
    #>  4     4              4
    #>  5     5              4
    #>  6     6              4
    #>  7     7              4
    #>  8     8              4
    #>  9     9              4
    #> 10    10              4
    #> # ℹ 990 more rows

Then we could convert our joint response like so:

``` r
d.joint_response |>
  mutate(
    response = type1_response(joint_response, K = 4),
    confidence = type2_response(joint_response, K = 4)
  )
#> # A tibble: 1,000 × 4
#>    trial joint_response response confidence
#>    <int>          <dbl>    <int>      <dbl>
#>  1     1              4        0          1
#>  2     2              4        0          1
#>  3     3              4        0          1
#>  4     4              4        0          1
#>  5     5              4        0          1
#>  6     6              4        0          1
#>  7     7              4        0          1
#>  8     8              4        0          1
#>  9     9              4        0          1
#> 10    10              4        0          1
#> # ℹ 990 more rows
```

Similarly, you can also convert the separate responses into a joint
response:

``` r
d |>
  mutate(joint_response = joint_response(response, confidence, K = 4))
#> # A tibble: 1,000 × 5
#> # Groups:   stimulus, response, confidence [16]
#>    trial stimulus response confidence joint_response
#>    <int>    <int>    <int>      <int>          <dbl>
#>  1     1        0        0          1              4
#>  2     2        0        0          1              4
#>  3     3        0        0          1              4
#>  4     4        0        0          1              4
#>  5     5        0        0          1              4
#>  6     6        0        0          1              4
#>  7     7        0        0          1              4
#>  8     8        0        0          1              4
#>  9     9        0        0          1              4
#> 10    10        0        0          1              4
#> # ℹ 990 more rows
```
…
### Parameter estimates

First, it is often useful to extract the posterior draws of the model
parameters, which we can do with `metad_draws`:

``` r
draws.metad <- tibble(.row = 1) |>
  add_metad_draws(m)
```

    #> # A tibble: 4,000 × 15
    #> # Groups:   .row [1]
    #>     .row .chain .iteration .draw     M dprime      c meta_dprime meta_c
    #>    <int>  <int>      <int> <int> <dbl>  <dbl>  <dbl>       <dbl>  <dbl>
    #>  1     1     NA         NA     1 0.635  0.756 -0.505       0.480 -0.505
    #>  2     1     NA         NA     2 0.419  0.723 -0.503       0.303 -0.505
    #>  3     1     NA         NA     3 0.358  0.775 -0.499       0.277 -0.505
    #>  4     1     NA         NA     4 0.571  0.687 -0.463       0.392 -0.505
    #>  5     1     NA         NA     5 0.499  0.803 -0.540       0.401 -0.505
    #>  6     1     NA         NA     6 0.398  0.735 -0.557       0.293 -0.505
    #>  7     1     NA         NA     7 0.574  0.605 -0.475       0.347 -0.505
    #>  8     1     NA         NA     8 0.456  0.716 -0.501       0.326 -0.505
    #>  9     1     NA         NA     9 0.693  0.476 -0.482       0.330 -0.505
    #> 10     1     NA         NA    10 0.596  0.777 -0.481       0.463 -0.505
    #> # ℹ 3,990 more rows
    #> # ℹ 6 more variables: meta_c2_0_1 <dbl>, meta_c2_0_2 <dbl>, meta_c2_0_3 <dbl>,
    #> #   meta_c2_1_1 <dbl>, meta_c2_1_2 <dbl>, meta_c2_1_3 <dbl>

This `tibble` has a separate row for every posterior sample and a
separate column for every model parameter. This format is useful for
some purposes, but it will often be useful to pivot it so that we have a
separate row for each model parameter and posterior sample:

``` r
draws.metad <- tibble(.row = 1) |>
  add_metad_draws(m, pivot_longer=TRUE)
```

    #> # A tibble: 44,000 × 6
    #> # Groups:   .row, .variable [11]
    #>     .row .chain .iteration .draw .variable    .value
    #>    <int>  <int>      <int> <int> <chr>         <dbl>
    #>  1     1     NA         NA     1 M            0.635 
    #>  2     1     NA         NA     1 dprime       0.756 
    #>  3     1     NA         NA     1 c           -0.505 
    #>  4     1     NA         NA     1 meta_dprime  0.480 
    #>  5     1     NA         NA     1 meta_c      -0.505 
    #>  6     1     NA         NA     1 meta_c2_0_1 -0.706 
    #>  7     1     NA         NA     1 meta_c2_0_2 -1.46  
    #>  8     1     NA         NA     1 meta_c2_0_3 -3.03  
    #>  9     1     NA         NA     1 meta_c2_1_1 -0.0206
    #> 10     1     NA         NA     1 meta_c2_1_2  1.01  
    #> # ℹ 43,990 more rows
…
### Posterior predictions

One way to evaluate model fit is to perform a *posterior predictive
check*: to simulate data from the model’s posterior and compare our
simulated and actual data. We can do this using
[`tidybayes::predicted_draws`](https://mjskay.github.io/tidybayes/reference/add_predicted_draws.html):

``` r
draws.predicted <- predicted_draws(m, d.summary)
```

    #> # A tibble: 64,000 × 9
    #> # Groups:   N_0, N_1, N, .row, .category [16]
    #>      N_0   N_1 N[,"N_0_1"]  .row .chain .iteration .draw .category .prediction
    #>    <int> <int>       <int> <int>  <int>      <int> <int> <fct>           <int>
    #>  1   500   500           3     1     NA         NA     1 N_0_1               2
    #>  2   500   500           3     1     NA         NA     2 N_0_1               4
    #>  3   500   500           3     1     NA         NA     3 N_0_1               1
    #>  4   500   500           3     1     NA         NA     4 N_0_1               3
    #>  5   500   500           3     1     NA         NA     5 N_0_1               1
    #>  6   500   500           3     1     NA         NA     6 N_0_1               4
    #>  7   500   500           3     1     NA         NA     7 N_0_1               2
    #>  8   500   500           3     1     NA         NA     8 N_0_1               1
    #>  9   500   500           3     1     NA         NA     9 N_0_1               4
    #> 10   500   500           3     1     NA         NA    10 N_0_1               2
    #> # ℹ 63,990 more rows
    #> # ℹ 1 more variable: N[2:16] <int>
…
``` r
draws.predicted <- draws.predicted |>
  ungroup() |>
  separate(.category,
    into = c("var", "stimulus", "joint_response"),
    sep = "_", convert = TRUE
  ) |>
  mutate(
    response = factor(type1_response(joint_response, K = 4)),
    confidence = factor(type2_response(joint_response, K = 4))
  )
```

    #> # A tibble: 64,000 × 13
    #>      N_0   N_1 N[,"N_0_1"]  .row .chain .iteration .draw var   stimulus
    #>    <int> <int>       <int> <int>  <int>      <int> <int> <chr>    <int>
    #>  1   500   500           3     1     NA         NA     1 N            0
    #>  2   500   500           3     1     NA         NA     2 N            0
    #>  3   500   500           3     1     NA         NA     3 N            0
    #>  4   500   500           3     1     NA         NA     4 N            0
    #>  5   500   500           3     1     NA         NA     5 N            0
    #>  6   500   500           3     1     NA         NA     6 N            0
    #>  7   500   500           3     1     NA         NA     7 N            0
    #>  8   500   500           3     1     NA         NA     8 N            0
    #>  9   500   500           3     1     NA         NA     9 N            0
    #> 10   500   500           3     1     NA         NA    10 N            0
    #> # ℹ 63,990 more rows
    #> # ℹ 5 more variables: N[2:16] <int>, joint_response <int>, .prediction <int>,
    #> #   response <fct>, confidence <fct>
…
Usually it will be simpler to compare response probabilities rather than
raw response counts. To do this, we can use the same workflow as above
but using
[`tidybayes::epred_draws`](https://mjskay.github.io/tidybayes/reference/add_predicted_draws.html):

``` r
draws.epred <- epred_draws(m, newdata = tibble(.row = 1)) |>
  separate(.category, into = c("var", "stimulus", "joint_response"), sep = "_", convert = TRUE) |>
  mutate(
    response = factor(type1_response(joint_response, K = 4)),
    confidence = factor(type2_response(joint_response, K = 4))
  )
```

    #> # A tibble: 64,000 × 10
    #> # Groups:   .row [1]
    #>     .row .chain .iteration .draw var   stimulus joint_response  .epred response
    #>    <int>  <int>      <int> <int> <chr>    <int>          <int>   <dbl> <fct>   
    #>  1     1     NA         NA     1 N            0              1 0.00296 0       
    #>  2     1     NA         NA     2 N            0              1 0.0100  0       
    #>  3     1     NA         NA     3 N            0              1 0.00375 0       
    #>  4     1     NA         NA     4 N            0              1 0.0122  0       
    #>  5     1     NA         NA     5 N            0              1 0.00535 0       
    #>  6     1     NA         NA     6 N            0              1 0.00504 0       
    #>  7     1     NA         NA     7 N            0              1 0.00363 0       
    #>  8     1     NA         NA     8 N            0              1 0.00509 0       
    #>  9     1     NA         NA     9 N            0              1 0.00828 0       
    #> 10     1     NA         NA    10 N            0              1 0.00637 0       
    #> # ℹ 63,990 more rows
    #> # ℹ 1 more variable: confidence <fct>
…
### Pseudo Type 1 ROC

To obtain type 1 performance as a pseudo-type 1 ROC, we can use
`add_roc1_draws`:

``` r
draws.roc1 <- tibble(.row = 1) |>
  add_roc1_draws(m)
```

    #> # A tibble: 28,000 × 9
    #> # Groups:   .row, joint_response, response, confidence [7]
    #>     .row .chain .iteration .draw joint_response response confidence  p_fa p_hit
    #>    <int>  <int>      <int> <int>          <dbl>    <int>      <dbl> <dbl> <dbl>
    #>  1     1     NA         NA     1              1        0          4 0.997 1.000
    #>  2     1     NA         NA     2              1        0          4 0.990 0.997
    #>  3     1     NA         NA     3              1        0          4 0.996 0.999
    #>  4     1     NA         NA     4              1        0          4 0.988 0.997
    #>  5     1     NA         NA     5              1        0          4 0.995 0.999
    #>  6     1     NA         NA     6              1        0          4 0.995 0.999
    #>  7     1     NA         NA     7              1        0          4 0.996 0.999
    #>  8     1     NA         NA     8              1        0          4 0.995 0.999
    #>  9     1     NA         NA     9              1        0          4 0.992 0.997
    #> 10     1     NA         NA    10              1        0          4 0.994 0.999
    #> # ℹ 27,990 more rows
…
### Type 2 ROC

Finally, to plot type 2 performance as a type 2 ROC, we can use
`add_roc2_draws`:

``` r
draws.roc2 <- tibble(.row = 1) |>
  add_roc2_draws(m)
```

    #> # A tibble: 24,000 × 8
    #> # Groups:   .row, response, confidence [6]
    #>     .row .chain .iteration .draw response confidence  p_hit2   p_fa2
    #>    <int>  <int>      <int> <int>    <int>      <dbl>   <dbl>   <dbl>
    #>  1     1     NA         NA     1        0          4 0.00659 0.00233
    #>  2     1     NA         NA     2        0          4 0.0226  0.0134 
    #>  3     1     NA         NA     3        0          4 0.00824 0.00468
    #>  4     1     NA         NA     4        0          4 0.0270  0.0138 
    #>  5     1     NA         NA     5        0          4 0.0120  0.00552
    #>  6     1     NA         NA     6        0          4 0.0119  0.00678
    #>  7     1     NA         NA     7        0          4 0.00841 0.00410
    #>  8     1     NA         NA     8        0          4 0.0115  0.00608
    #>  9     1     NA         NA     9        0          4 0.0205  0.0114 
    #> 10     1     NA         NA    10        0          4 0.0138  0.00559
    #> # ℹ 23,990 more rows
…
